#include <stdio.h>

int main() {
    int a[] = {0,1,2,3}, b[10];
    int c[2];
    int d[][3] = {{1,2,3}, {4,5,6}};
    int e[2][10];
    int p = 0, n, m, s;
    p++;
    ++p;
    s = 0;
    printf("Mesaj de test");
    scanf("%d %d", &n, &m);
    // Comentariu pe o linie
    /* comentariu pe
    mai multe
    linii */
    s = n + m;
    if ((2 > 1) && (1 < 2))
    {
        printf("mesaj");
    }
    while (1 > 2)
    {
        a[1] = 0;
    }
    a[2]--;
    printf("%d + %d = %d", n, m, s);
    int i;
    for (i = 10; i >= 0; i--)
    {
        printf("mesaj %d ", i);
    }
    return 0;
}